…
### create IDs for frequencies


```r
freq_map <- select(tb_FLB, Freq) %>%
  arrange(Freq) %>%
  mutate(freq_text_id = str_c("g_", str_pad(1:num_FLB, 2, pad = "0")),
         freq_num_id = str_pad(1:num_FLB, 2, pad = "0")) # as.numeric

# checking
freq_map
```

```
## # A tibble: 80 × 3
##          Freq freq_text_id freq_num_id
##         <dbl>        <chr>       <chr>
## 1  1.9156e+14         g_01          01
## 2  1.9161e+14         g_02          02
## 3  1.9166e+14         g_03          03
## 4  1.9171e+14         g_04          04
## 5  1.9176e+14         g_05          05
## 6  1.9181e+14         g_06          06
## 7  1.9186e+14         g_07          07
## 8  1.9191e+14         g_08          08
## 9  1.9196e+14         g_09          09
## 10 1.9201e+14         g_10          10
## # ... with 70 more rows
```

Add frequency IDs to corresponding places. Also add column containing data type.


```r
tb_FLB <- tb_FLB %>%
  full_join(freq_map) %>%
  mutate(data_type = "Full load") %>%
  arrange(freq_num_id)

tb_FLB
```

```
## # A tibble: 80 × 8
##          Freq           wl PowerIn  PowerOut       Gain freq_text_id
##         <dbl>        <dbl>   <dbl>     <dbl>      <dbl>        <chr>
## 1  1.9156e+14 1.565006e-06     -30 -37.09882 -7.0988169         g_01
## 2  1.9161e+14 1.564597e-06     -30 -36.38302 -6.3830241         g_02
## 3  1.9166e+14 1.564189e-06     -30 -35.66880 -5.6687978         g_03
## 4  1.9171e+14 1.563781e-06     -30 -34.91138 -4.9113783         g_04
## 5  1.9176e+14 1.563373e-06     -30 -34.11669 -4.1166938         g_05
## 6  1.9181e+14 1.562966e-06     -30 -33.31893 -3.3189328         g_06
## 7  1.9186e+14 1.562558e-06     -30 -32.48775 -2.4877500         g_07
## 8  1.9191e+14 1.562151e-06     -30 -31.65658 -1.6565762         g_08
## 9  1.9196e+14 1.561744e-06     -30 -30.89328 -0.8932813         g_09
## 10 1.9201e+14 1.561338e-06     -30 -30.17117 -0.1711703         g_10
## # ... with 70 more rows, and 2 more variables: freq_num_id <chr>,
## #   data_type <chr>
```

```r
tb_Input <- tb_Input %>%
  full_join(freq_map) %>%
  mutate(data_type = "Input") %>%
  arrange(freq_num_id)
  
tb_Input
```

```
## # A tibble: 80 × 8
##          Freq    wl PowerIn PowerOut  Gain freq_text_id freq_num_id
##         <dbl> <dbl>   <dbl>    <dbl> <dbl>        <chr>       <chr>
## 1  1.9156e+14    NA      NA       NA    NA         g_01          01
## 2  1.9161e+14    NA      NA       NA    NA         g_02          02
## 3  1.9166e+14    NA      NA       NA    NA         g_03          03
## 4  1.9171e+14    NA      NA       NA    NA         g_04          04
## 5  1.9176e+14    NA      NA       NA    NA         g_05          05
## 6  1.9181e+14    NA      NA       NA    NA         g_06          06
## 7  1.9186e+14    NA      NA       NA    NA         g_07          07
## 8  1.9191e+14    NA      NA       NA    NA         g_08          08
## 9  1.9196e+14    NA      NA       NA    NA         g_09          09
## 10 1.9201e+14    NA      NA       NA    NA         g_10          10
## # ... with 70 more rows, and 1 more variables: data_type <chr>
```
…
Combine both data sets in one tibble


```r
tb_Total <- rbind(tb_FLB, tb_Input)
tb_Total <- tb_Total[, sort(names(tb_Total))]

tb_Total
```

```
## # A tibble: 160 × 88
##    data_type       Freq freq_num_id freq_text_id g_01_over g_02_over
##        <chr>      <dbl>       <chr>        <chr>     <dbl>     <dbl>
## 1  Full load 1.9156e+14          01         g_01  1.000000 0.8480486
## 2  Full load 1.9161e+14          02         g_02  1.179178 1.0000000
## 3  Full load 1.9166e+14          03         g_03  1.389959 1.1787525
## 4  Full load 1.9171e+14          04         g_04  1.654794 1.4033454
## 5  Full load 1.9176e+14          05         g_05  1.987066 1.6851285
## 6  Full load 1.9181e+14          06         g_06  2.387748 2.0249259
## 7  Full load 1.9186e+14          07         g_07  2.891390 2.4520392
## 8  Full load 1.9191e+14          08         g_08  3.501258 2.9692365
## 9  Full load 1.9196e+14          09         g_09  4.174011 3.5397638
## 10 Full load 1.9201e+14          10         g_10  4.929066 4.1800875
## # ... with 150 more rows, and 82 more variables: g_03_over <dbl>,
## #   g_04_over <dbl>, g_05_over <dbl>, g_06_over <dbl>, g_07_over <dbl>,
## #   g_08_over <dbl>, g_09_over <dbl>, g_10_over <dbl>, g_11_over <dbl>,
## #   g_12_over <dbl>, g_13_over <dbl>, g_14_over <dbl>, g_15_over <dbl>,
## #   g_16_over <dbl>, g_17_over <dbl>, g_18_over <dbl>, g_19_over <dbl>,
## #   g_20_over <dbl>, g_21_over <dbl>, g_22_over <dbl>, g_23_over <dbl>,
## #   g_24_over <dbl>, g_25_over <dbl>, g_26_over <dbl>, g_27_over <dbl>,
## #   g_28_over <dbl>, g_29_over <dbl>, g_30_over <dbl>, g_31_over <dbl>,
## #   g_32_over <dbl>, g_33_over <dbl>, g_34_over <dbl>, g_35_over <dbl>,
…
